…
d_narr_cell <- get_narr_cell_numbers(d)
```

Add NARR data.

``` r
get_narr_data(d_narr_cell, narr_variables = c('air.2m', 'rhum.2m'))
#> downloading narr fst chunk files for chunk number 5...
#> ℹ all files already exist
#> reading in /Users/RASV5G/OneDrive - cchmc/addNarrData/s3_downloads/geomarker/narr/narr_chunk_fst/narr_chunk_5_air.2m.fst and joining to data...
#> reading in /Users/RASV5G/OneDrive - cchmc/addNarrData/s3_downloads/geomarker/narr/narr_chunk_fst/narr_chunk_5_rhum.2m.fst and joining to data...
#> Joining, by = c("narr_cell", "date", "id", "visit_date", "lat", "lon", "start_date", "end_date", "narr_chunk")
#> # A tibble: 24 x 11
#>    narr_cell date       id    visit_date   lat   lon start_date end_date  
#>        <int> <date>     <chr> <date>     <dbl> <dbl> <date>     <date>    
#>  1     56423 2020-06-11 3c    2020-06-18  39.5 -84.6 2020-06-11 2020-06-18
#>  2     56423 2020-06-12 3c    2020-06-18  39.5 -84.6 2020-06-11 2020-06-18
#>  3     56423 2020-06-13 3c    2020-06-18  39.5 -84.6 2020-06-11 2020-06-18
#>  4     56423 2020-06-14 3c    2020-06-18  39.5 -84.6 2020-06-11 2020-06-18
#>  5     56423 2020-06-15 3c    2020-06-18  39.5 -84.6 2020-06-11 2020-06-18
#>  6     56423 2020-06-16 3c    2020-06-18  39.5 -84.6 2020-06-11 2020-06-18
#>  7     56423 2020-06-17 3c    2020-06-18  39.5 -84.6 2020-06-11 2020-06-18
#>  8     56423 2020-06-18 3c    2020-06-18  39.5 -84.6 2020-06-11 2020-06-18
#>  9     56772 2012-01-30 2b    2012-02-06  39.2 -84.6 2012-01-30 2012-02-06
#> 10     56772 2012-01-31 2b    2012-02-06  39.2 -84.6 2012-01-30 2012-02-06
#> # … with 14 more rows, and 3 more variables: narr_chunk <dbl>,
#> #   air.2m <dbl>, rhum.2m <dbl>
```
